Case Study: Welcome to University
…
Analysis

We found the occupancy rates of quota in all the universities.

Occupancy_rate_of_quota <- osym_data_2017_except_abroad  %>% 
  group_by(university_name) %>% 
  summarise(total_quota = sum(as.integer(general_quota)  ),
            total_placement = sum(as.integer(general_placement) ),
            Percentage=round((sum(as.integer(general_placement) )/sum(as.integer(general_quota) ))*100)) %>% 
  arrange(Percentage)

Occupancy_rate_of_quota

## # A tibble: 172 x 4
##                            university_name total_quota total_placement Percentage
##                                      <chr>       <int>           <int>      <dbl>
##  1                    ANADOLU NVERSTES       55767           12864         23
##  2            STANBUL RUMEL NVERSTES         528             197         37
##  3 ALANYA HAMDULLAH EMN PAA NVERSTES         155              60         39
##  4                   ALTINBA NVERSTES        1749             770         44
##  5                    STNYE NVERSTES         953             429         45
##  6           TRK HAVA KURUMU NVERSTES         596             270         45
##  7               ANTALYA AKEV NVERSTES         230             125         54
##  8                      TOROS NVERSTES         510             289         57
##  9                    AVRASYA NVERSTES        1366             796         58
## 10                    ARDAHAN NVERSTES        1130             664         59
## # ... with 162 more rows

We found the occupancy rates of quota universities in stanbul.

Istanbul_Occupancy_rate_of_quota <- osym_data_2017_except_abroad  %>% 
  filter(city == "STANBUL")%>% 
  group_by(university_name) %>% 
  summarise(total_quota = sum(as.integer(general_quota)),
            total_placement = sum(as.integer(general_placement)),
            Percentage=round((sum(as.integer(general_placement))/sum(as.integer(general_quota)))*100)) %>% 
  arrange(Percentage)

Istanbul_Occupancy_rate_of_quota

## # A tibble: 51 x 4
##                  university_name total_quota total_placement Percentage
##                            <chr>       <int>           <int>      <dbl>
##  1  STANBUL RUMEL NVERSTES         528             197         37
##  2         ALTINBA NVERSTES        1749             770         44
##  3          STNYE NVERSTES         953             429         45
##  4 STANBUL GELM NVERSTES        3950            2351         60
##  5   STANBUL GEDK NVERSTES         690             421         61
##  6    STANBUL KENT NVERSTES         440             269         61
##  7            HAL NVERSTES        1403             886         63
##  8    STANBUL AREL NVERSTES        1545             980         63
##  9             OKAN NVERSTES        2393            1555         65
## 10           BRUN NVERSTES        1077             759         70
## # ... with 41 more rows
…
