Proposal Phase of Project
…
The data set that will use in project and initial exploratory data analysis on it consists of 4,106 observations and 27 variables.

# Summary by provstate respect to event and casualties (Pivot)
gtd.turkey.provstate= group_by(gtd.turkey, provstate) %>%
  summarise(numberOfEvents = length(eventid), numberOfCasualties = sum(nkill, na.rm = TRUE)) %>%
  ungroup()

gtd.turkey.provstate

## # A tibble: 71 x 3
##    provstate numberOfEvents numberOfCasualties
##       <fctr>          <int>              <int>
##  1                        1                  3
##  2     Adana             97                 73
##  3  Adiyaman             17                 59
##  4      Agri             46                223
##  5    Amasya              2                  1
##  6    Ankara            298                383
##  7   Antalya             31                 23
##  8   Ardahan              5                  9
##  9    Artvin              4                 10
## 10     Aydin              6                  6
## # ... with 61 more rows
…
Bivariate Analysis

Attacks / Casualities

# Summary by year respect to event and casualties (Pivot)
gtd.turkey.year= group_by(gtd.turkey, year) %>%
  summarise(numberOfEvents = length(eventid), numberOfCasualties = sum(nkill, na.rm = TRUE))
gtd.turkey.year

## # A tibble: 45 x 3
##     year numberOfEvents numberOfCasualties
##    <int>          <int>              <int>
##  1  1970             12                  0
##  2  1971             35                  1
##  3  1972              9                  3
##  4  1974              1                  0
##  5  1975             10                  0
##  6  1976             35                  7
##  7  1977            189                 29
##  8  1978             52                 40
##  9  1979            141                123
## 10  1980             95                111
## # ... with 35 more rows
…
